{ "height":21,
 "layers":[
        {
         "data":[0, 0, 0, 0, 0, 0, 0, 0, 0, 0, 0, 0, 0, 0, 0, 0, 0, 61, 62, 62, 62, 62, 62, 63, 0, 0, 61, 62, 62, 62, 62, 62, 62, 54, 55, 0, 0, 0, 0, 0, 0, 0, 0, 0, 0, 0, 0, 0, 0, 0, 61, 62, 62, 62, 62, 62, 63, 0, 0, 61, 62, 62, 62, 62, 62, 62, 62, 63, 0, 0, 0, 0, 0, 0, 53, 54, 55, 0, 0, 0, 0, 0, 0, 69, 70, 70, 70, 70, 70, 71, 0, 0, 61, 62, 62, 62, 62, 62, 62, 70, 71, 0, 0, 0, 0, 0, 0, 61, 62, 63, 0, 0, 0, 0, 0, 0, 0, 0, 0, 0, 0, 0, 0, 0, 0, 61, 62, 62, 62, 62, 62, 62, 0, 0, 0, 0, 0, 0, 0, 0, 69, 70, 71, 0, 0, 0, 0, 0, 0, 0, 0, 0, 0, 0, 0, 0, 0, 0, 61, 62, 62, 62, 62, 62, 62, 0, 0, 0, 0, 0, 0, 0, 0, 0, 0, 0, 0, 0, 0, 0, 0, 0, 0, 0, 0, 0, 0, 0, 0, 0, 50, 61, 62, 62, 62, 62, 62, 62, 0, 0, 0, 0, 0, 0, 0, 0, 0, 0, 0, 0, 0, 0, 0, 0, 0, 0, 0, 0, 0, 0, 0, 0, 50, 58, 69, 70, 70, 70, 70, 70, 70, 0, 0, 0, 0, 0, 0, 0, 0, 0, 0, 0, 0, 0, 0, 0, 0, 0, 0, 0, 0, 0, 0, 0, 50, 58, 67, 75, 0, 0, 0, 0, 0, 0, 0, 0, 0, 0, 0, 0, 0, 0, 0, 0, 0, 0, 0, 0, 0, 0, 0, 0, 0, 0, 0, 0, 50, 58, 67, 75, 0, 0, 0, 0, 0, 0, 0, 0, 0, 0, 0, 0, 0, 0, 0, 0, 0, 0, 0, 0, 0, 0, 0, 0, 0, 0, 0, 0, 50, 58, 67, 75, 0, 0, 0, 0, 0, 0, 0, 0, 0, 0, 0, 0, 0, 0, 0, 0, 0, 0, 0, 0, 0, 0, 0, 0, 0, 0, 0, 0, 50, 58, 67, 75, 0, 0, 0, 0, 0, 0, 0, 0, 0, 0, 0, 0, 0, 0, 0, 0, 0, 0, 0, 0, 0, 0, 0, 0, 0, 0, 0, 0, 50, 58, 67, 75, 0, 0, 0, 0, 0, 0, 0, 0, 0, 0, 0, 0, 0, 0, 0, 0, 0, 0, 0, 0, 0, 0, 0, 0, 0, 0, 0, 0, 50, 58, 67, 75, 0, 0, 0, 0, 0, 0, 0, 0, 0, 0, 0, 0, 0, 0, 0, 0, 0, 0, 0, 0, 0, 0, 0, 0, 0, 0, 0, 0, 50, 58, 67, 75, 0, 0, 0, 0, 0, 0, 0, 0, 0, 0, 0, 0, 0, 0, 0, 0, 0, 0, 0, 0, 0, 0, 0, 0, 0, 0, 0, 0, 50, 58, 67, 75, 0, 0, 0, 0, 0, 0, 0, 0, 0, 0, 0, 0, 0, 0, 0, 53, 54, 55, 0, 0, 0, 0, 0, 0, 0, 0, 0, 0, 50, 58, 67, 75, 0, 0, 0, 0, 0, 0, 0, 0, 0, 0, 0, 0, 0, 0, 0, 0, 61, 62, 63, 0, 0, 0, 0, 0, 0, 0, 0, 0, 50, 58, 67, 75, 0, 0, 0, 0, 0, 0, 0, 0, 0, 0, 0, 0, 0, 0, 0, 0, 0, 69, 70, 71, 0, 0, 0, 0, 0, 0, 0, 0, 50, 58, 67, 75, 0, 0, 0, 0, 0, 0, 0, 0, 0, 0, 0, 0, 0, 0, 0, 0, 0, 0, 0, 0, 0, 0, 53, 54, 55, 0, 0, 0, 50, 58, 67, 75, 0, 0, 0, 0, 0, 0, 0, 0, 0, 0, 0, 0, 53, 54, 55, 0, 0, 0, 0, 0, 0, 0, 0, 61, 62, 63, 0, 0, 50, 58, 67, 75, 0, 0, 0, 0, 0, 0, 0, 0, 0, 0, 0, 0, 0, 61, 62, 63, 0, 0, 0, 0, 0, 0, 0, 0, 61, 62, 63, 0, 57, 58, 67, 68, 0, 0, 0, 0, 0, 0, 0, 0, 0, 0, 0, 0, 0, 0, 61, 62, 63, 0, 0],
         "height":21,
         "name":"Background",
         "opacity":1,
         "type":"tilelayer",
         "visible":true,
         "width":33,
         "x":0,
         "y":0
        }, 
        {
         "data":[5, 5, 5, 5, 5, 5, 5, 5, 5, 5, 5, 5, 13, 29, 30, 31, 6, 0, 6, 0, 0, 0, 0, 0, 0, 0, 0, 0, 0, 0, 6, 29, 30, 0, 0, 15, 5, 5, 5, 5, 5, 5, 5, 5, 5, 7, 29, 30, 31, 6, 0, 6, 0, 0, 0, 0, 0, 0, 0, 0, 0, 0, 0, 6, 29, 30, 0, 0, 6, 0, 0, 0, 0, 0, 0, 0, 0, 0, 6, 37, 38, 39, 6, 0, 6, 0, 0, 0, 0, 0, 0, 0, 0, 0, 0, 0, 6, 37, 38, 22, 23, 7, 5, 5, 5, 5, 5, 5, 13, 5, 5, 15, 5, 5, 5, 7, 5, 13, 5, 5, 5, 5, 7, 5, 5, 5, 5, 5, 5, 7, 5, 5, 30, 31, 6, 0, 0, 0, 0, 0, 0, 6, 0, 0, 0, 0, 0, 0, 6, 0, 0, 0, 0, 0, 0, 6, 0, 0, 0, 0, 0, 0, 6, 0, 0, 30, 31, 6, 0, 0, 0, 0, 0, 0, 6, 0, 0, 0, 0, 0, 0, 6, 0, 0, 0, 0, 0, 0, 6, 0, 0, 0, 0, 0, 0, 6, 0, 0, 30, 31, 6, 0, 0, 0, 0, 0, 0, 6, 0, 0, 0, 0, 0, 0, 6, 0, 0, 0, 0, 0, 0, 6, 0, 0, 0, 0, 0, 0, 6, 0, 0, 30, 31, 6, 0, 0, 0, 0, 0, 0, 6, 0, 0, 0, 0, 0, 0, 6, 0, 0, 0, 0, 0, 0, 6, 0, 0, 0, 0, 0, 0, 6, 0, 0, 30, 31, 6, 0, 0, 0, 0, 0, 0, 6, 0, 0, 0, 0, 0, 0, 6, 0, 0, 0, 0, 0, 0, 6, 0, 0, 0, 0, 0, 0, 6, 0, 0, 30, 31, 6, 0, 0, 0, 0, 0, 0, 6, 0, 0, 0, 0, 0, 0, 6, 0, 0, 0, 0, 0, 0, 6, 0, 0, 0, 0, 0, 0, 16, 5, 5, 30, 31, 6, 0, 0, 0, 0, 0, 0, 6, 0, 0, 0, 0, 0, 0, 6, 0, 0, 0, 0, 0, 0, 6, 0, 0, 0, 0, 0, 0, 6, 21, 22, 38, 39, 6, 0, 0, 0, 0, 0, 0, 6, 0, 0, 0, 0, 0, 0, 6, 0, 0, 0, 0, 0, 0, 6, 0, 0, 0, 0, 0, 0, 6, 29, 30, 5, 5, 16, 0, 0, 0, 0, 0, 0, 6, 0, 0, 0, 0, 0, 0, 6, 0, 0, 0, 0, 0, 0, 6, 0, 0, 0, 0, 0, 0, 6, 29, 30, 22, 23, 6, 0, 0, 0, 0, 0, 0, 6, 0, 0, 0, 0, 0, 0, 6, 0, 0, 0, 0, 0, 0, 6, 0, 0, 0, 0, 0, 0, 6, 29, 30, 30, 31, 6, 0, 0, 0, 0, 0, 0, 6, 0, 0, 0, 0, 0, 0, 6, 0, 0, 0, 0, 0, 0, 6, 0, 0, 0, 0, 0, 0, 6, 29, 30, 30, 31, 6, 0, 0, 0, 0, 0, 0, 6, 0, 0, 0, 0, 0, 0, 6, 0, 0, 0, 0, 0, 0, 6, 0, 0, 0, 0, 0, 0, 6, 29, 30, 30, 31, 6, 0, 0, 0, 0, 0, 0, 6, 0, 0, 0, 0, 0, 0, 6, 0, 0, 0, 0, 0, 0, 6, 0, 0, 0, 0, 0, 0, 6, 29, 30, 30, 31, 7, 5, 5, 5, 5, 5, 5, 13, 5, 5, 5, 5, 5, 5, 7, 5, 5, 5, 5, 5, 5, 7, 5, 5, 5, 15, 5, 5, 7, 29, 30, 30, 31, 6, 21, 22, 23, 0, 0, 0, 6, 0, 0, 0, 0, 0, 0, 21, 22, 22, 22, 22, 22, 23, 6, 21, 22, 23, 6, 0, 0, 6, 29, 30, 30, 31, 6, 29, 30, 31, 0, 0, 0, 6, 0, 0, 0, 0, 0, 0, 29, 30, 30, 30, 30, 30, 31, 6, 29, 30, 31, 6, 0, 0, 6, 29, 30, 30, 31, 6, 29, 30, 31, 0, 0, 0, 6, 0, 0, 0, 0, 0, 0, 29, 30, 30, 30, 30, 30, 31, 6, 29, 30, 31, 6, 0, 0, 6, 29, 30],
         "height":21,
         "name":"Foreground",
         "opacity":1,
         "type":"tilelayer",
         "visible":true,
         "width":33,
         "x":0,
         "y":0
        }, 
        {
         "color":"#00ff00",
         "draworder":"topdown",
         "height":19,
         "name":"Colliders",
         "objects":[
                {
                 "height":20,
                 "id":2,
                 "name":"station",
                 "properties":
                    {

                    },
                 "rotation":0,
                 "type":"station",
                 "visible":true,
                 "width":580,
                 "x":40,
                 "y":60
                }, 
                {
                 "height":20,
                 "id":3,
                 "name":"station",
                 "properties":
                    {

                    },
                 "rotation":0,
                 "type":"station",
                 "visible":true,
                 "width":580,
                 "x":40,
                 "y":340
                }, 
                {
                 "height":260,
                 "id":4,
                 "name":"station",
                 "properties":
                    {

                    },
                 "rotation":0,
                 "type":"station",
                 "visible":true,
                 "width":20,
                 "x":40,
                 "y":80
                }, 
                {
                 "height":260,
                 "id":5,
                 "name":"station",
                 "properties":
                    {

                    },
                 "rotation":0,
                 "type":"station",
                 "visible":true,
                 "width":20,
                 "x":180,
                 "y":80
                }, 
                {
                 "height":260,
                 "id":6,
                 "name":"station",
                 "properties":
                    {

                    },
                 "rotation":0,
                 "type":"station",
                 "visible":true,
                 "width":20,
                 "x":320,
                 "y":80
                }, 
                {
                 "height":260,
                 "id":7,
                 "name":"station",
                 "properties":
                    {

                    },
                 "rotation":0,
                 "type":"station",
                 "visible":true,
                 "width":20,
                 "x":460,
                 "y":80
                }, 
                {
                 "height":260,
                 "id":8,
                 "name":"station",
                 "properties":
                    {

                    },
                 "rotation":0,
                 "type":"station",
                 "visible":true,
                 "width":20,
                 "x":600,
                 "y":80
                }],
         "opacity":1,
         "type":"objectgroup",
         "visible":false,
         "width":33,
         "x":0,
         "y":0
        }],
 "nextobjectid":9,
 "orientation":"orthogonal",
 "properties":
    {

    },
 "renderorder":"right-down",
 "tileheight":20,
 "tilesets":[
        {
         "firstgid":1,
         "image":"tiles.png",
         "imageheight":200,
         "imagewidth":160,
         "margin":0,
         "name":"tiles",
         "properties":
            {

            },
         "spacing":0,
         "tileheight":20,
         "tilewidth":20
        }],
 "tilewidth":20,
 "version":1,
 "width":33
}